%YAML 1.1
%TAG !u! tag:unity3d.com,2011:
--- !u!114 &11400000
MonoBehaviour:
  m_ObjectHideFlags: 0
  m_CorrespondingSourceObject: {fileID: 0}
  m_PrefabInstance: {fileID: 0}
  m_PrefabAsset: {fileID: 0}
  m_GameObject: {fileID: 0}
  m_Enabled: 1
  m_EditorHideFlags: 0
  m_Script: {fileID: 11500000, guid: 6ab134f1b52cc6f43845f5a2b9b7d7b2, type: 3}
  m_Name: AchievementList
  m_EditorClassIdentifier: 
  achievements:
  - AcheivementName: 
    description: 
    typeOfAcheivement: 0
    unlocked: 0
    count: 0
    partIndex: 0
