%YAML 1.1
%TAG !u! tag:unity3d.com,2011:
--- !u!114 &11400000
MonoBehaviour:
  m_ObjectHideFlags: 0
  m_CorrespondingSourceObject: {fileID: 0}
  m_PrefabInstance: {fileID: 0}
  m_PrefabAsset: {fileID: 0}
  m_GameObject: {fileID: 0}
  m_Enabled: 1
  m_EditorHideFlags: 0
  m_Script: {fileID: 11500000, guid: 9009861a4b83ff44e819bbe83445f490, type: 3}
  m_Name: Skills
  m_EditorClassIdentifier: 
  keys:
  - 5342cb3b-9b3a-4ef0-a446-f0263c5ecc63
  - e664d755-b52d-4661-b53b-e071386c54c2
  - 3606260e-80be-4620-b7c0-9b1c88bce6fa
  - 3c0e972a-a8cc-4c86-becd-e9520a6f9b8d
  - 56bae184-31cf-425d-ab44-611d948baead
  - ae3d0c17-fb95-4f4f-87bf-06055786527d
  values:
  - name: Spear
    description: Skill with a spear
    id: 5342cb3b-9b3a-4ef0-a446-f0263c5ecc63
    levelMultiplier: 14
    levelExponent: 1.7
    levelConst: 100
  - name: Mace
    description: Skill with a mace
    id: e664d755-b52d-4661-b53b-e071386c54c2
    levelMultiplier: 14
    levelExponent: 1.7
    levelConst: 100
  - name: Bow
    description: Skill with ranged weapons
    id: 3606260e-80be-4620-b7c0-9b1c88bce6fa
    levelMultiplier: 14
    levelExponent: 1.7
    levelConst: 100
  - name: Light
    description: The power of Light
    id: 3c0e972a-a8cc-4c86-becd-e9520a6f9b8d
    levelMultiplier: 14
    levelExponent: 1.7
    levelConst: 100
  - name: Shadow
    description: The power of Shadow
    id: 56bae184-31cf-425d-ab44-611d948baead
    levelMultiplier: 14
    levelExponent: 1.7
    levelConst: 100
  - name: Darkness
    description: The power of Darkness
    id: ae3d0c17-fb95-4f4f-87bf-06055786527d
    levelMultiplier: 14
    levelExponent: 1.7
    levelConst: 100
