%YAML 1.1
%TAG !u! tag:unity3d.com,2011:
--- !u!114 &11400000
MonoBehaviour:
  m_ObjectHideFlags: 0
  m_CorrespondingSourceObject: {fileID: 0}
  m_PrefabInstance: {fileID: 0}
  m_PrefabAsset: {fileID: 0}
  m_GameObject: {fileID: 0}
  m_Enabled: 1
  m_EditorHideFlags: 0
  m_Script: {fileID: 11500000, guid: 7dc1c3210ad73d744acffbb20740449c, type: 3}
  m_Name: Stats
  m_EditorClassIdentifier: 
  keys:
  - 33276510-e893-4c37-9e58-50be0e3e8f91
  values:
  - name: Willpower
    description: Willpower is your basic health
    id: 33276510-e893-4c37-9e58-50be0e3e8f91
    baseValue: 100
    skills: []
